[gd_scene load_steps=4 format=2]

[ext_resource path="res://src/spells/Animation.gd" type="Script" id=1]
[ext_resource path="res://assets/abilities/reflect.png" type="Texture" id=2]

[sub_resource type="Animation" id=1]
resource_name = "impact"
length = 1.5
tracks/0/type = "value"
tracks/0/path = NodePath("Sprite:modulate")
tracks/0/interp = 1
tracks/0/loop_wrap = true
tracks/0/imported = false
tracks/0/enabled = true
tracks/0/keys = {
"times": PoolRealArray( 0, 0.5, 1.5 ),
"transitions": PoolRealArray( 1, 5.27803, 1 ),
"update": 0,
"values": [ Color( 1, 1, 1, 0 ), Color( 1, 1, 1, 1 ), Color( 1, 1, 1, 0 ) ]
}

[node name="Reflect" type="Node2D"]
script = ExtResource( 1 )

[node name="Sprite" type="Sprite" parent="."]
modulate = Color( 1, 1, 1, 0 )
texture = ExtResource( 2 )

[node name="Animation" type="AnimationPlayer" parent="."]
anims/impact = SubResource( 1 )
