; Engine configuration file.
; It's best edited using the editor UI and not directly,
; since the parameters that go here are not all obvious.
;
; Format:
;   [section] ; section goes between []
;   param=value ; assign values to parameters

config_version=4

_global_script_classes=[ {
"base": "Item",
"class": "InsigniaOfDoom",
"language": "GDScript",
"path": "res://src/items/InsigniaOfDoom.gd"
}, {
"base": "Control",
"class": "InventorySlot",
"language": "GDScript",
"path": "res://scenes/main_hub/InventorySlot.gd"
}, {
"base": "Node",
"class": "Item",
"language": "GDScript",
"path": "res://src/items/Item.gd"
}, {
"base": "Node",
"class": "ItemTexture",
"language": "GDScript",
"path": "res://src/globals/ItemTexture.gd"
} ]
_global_script_class_icons={
"InsigniaOfDoom": "",
"InventorySlot": "",
"Item": "",
"ItemTexture": ""
}

[application]

config/name="DungeonTactic"
run/main_scene="res://scenes/titlescreen/Titlescreen.tscn"
boot_splash/image="res://assets/logos/first_iteration.png"
boot_splash/fullsize=false
boot_splash/use_filter=false
boot_splash/bg_color=Color( 0, 0, 0, 1 )

[autoload]

Stat="*res://src/combat/stats/Stat.gd"
SpellSchool="*res://src/combat/stats/SpellSchool.gd"
ResourceType="*res://src/combat/resources/ResourceType.gd"
TargetType="*res://src/combat/abilities/TargetType.gd"
HitType="*res://src/combat/HitType.gd"
CombatResultType="*res://src/combat/CombatResultType.gd"
CombatResult="*res://src/combat/CombatResult.gd"
SceneSwitcher="*res://scenes/SceneSwitcher.gd"
MaximizeWindow="*res://src/globals/MaximizeWindow.gd"
Models="*res://src/globals/Models.gd"
Scenes="*res://scenes/Scenes.gd"
InputTextures="*res://src/globals/InputTextures.gd"
InputControlls="*res://src/globals/InputControlls.gd"
GameState="*res://src/globals/GameState.gd"
Experience="*res://src/globals/Experience.gd"
Inventory="*res://src/globals/Inventory.gd"

[debug]

gdscript/warnings/unused_argument=false

[display]

window/size/width=480
window/size/height=270
window/vsync/vsync_via_compositor=true
window/stretch/mode="2d"
window/stretch/aspect="keep"

[input]

ui_accept={
"deadzone": 0.5,
"events": [ Object(InputEventKey,"resource_local_to_scene":false,"resource_name":"","device":0,"alt":false,"shift":false,"control":false,"meta":false,"command":false,"pressed":false,"scancode":32,"physical_scancode":0,"unicode":0,"echo":false,"script":null)
, Object(InputEventJoypadButton,"resource_local_to_scene":false,"resource_name":"","device":0,"button_index":0,"pressure":0.0,"pressed":false,"script":null)
 ]
}
ui_left={
"deadzone": 0.5,
"events": [ Object(InputEventKey,"resource_local_to_scene":false,"resource_name":"","device":0,"alt":false,"shift":false,"control":false,"meta":false,"command":false,"pressed":false,"scancode":16777231,"physical_scancode":0,"unicode":0,"echo":false,"script":null)
, Object(InputEventJoypadButton,"resource_local_to_scene":false,"resource_name":"","device":0,"button_index":14,"pressure":0.0,"pressed":false,"script":null)
, Object(InputEventKey,"resource_local_to_scene":false,"resource_name":"","device":0,"alt":false,"shift":false,"control":false,"meta":false,"command":false,"pressed":false,"scancode":65,"physical_scancode":0,"unicode":0,"echo":false,"script":null)
, Object(InputEventJoypadMotion,"resource_local_to_scene":false,"resource_name":"","device":0,"axis":0,"axis_value":-1.0,"script":null)
 ]
}
ui_right={
"deadzone": 0.5,
"events": [ Object(InputEventKey,"resource_local_to_scene":false,"resource_name":"","device":0,"alt":false,"shift":false,"control":false,"meta":false,"command":false,"pressed":false,"scancode":16777233,"physical_scancode":0,"unicode":0,"echo":false,"script":null)
, Object(InputEventJoypadButton,"resource_local_to_scene":false,"resource_name":"","device":0,"button_index":15,"pressure":0.0,"pressed":false,"script":null)
, Object(InputEventKey,"resource_local_to_scene":false,"resource_name":"","device":0,"alt":false,"shift":false,"control":false,"meta":false,"command":false,"pressed":false,"scancode":68,"physical_scancode":0,"unicode":0,"echo":false,"script":null)
, Object(InputEventJoypadMotion,"resource_local_to_scene":false,"resource_name":"","device":0,"axis":0,"axis_value":1.0,"script":null)
 ]
}
ui_up={
"deadzone": 0.5,
"events": [ Object(InputEventKey,"resource_local_to_scene":false,"resource_name":"","device":0,"alt":false,"shift":false,"control":false,"meta":false,"command":false,"pressed":false,"scancode":16777232,"physical_scancode":0,"unicode":0,"echo":false,"script":null)
, Object(InputEventJoypadButton,"resource_local_to_scene":false,"resource_name":"","device":0,"button_index":12,"pressure":0.0,"pressed":false,"script":null)
, Object(InputEventKey,"resource_local_to_scene":false,"resource_name":"","device":0,"alt":false,"shift":false,"control":false,"meta":false,"command":false,"pressed":false,"scancode":87,"physical_scancode":0,"unicode":0,"echo":false,"script":null)
, Object(InputEventJoypadMotion,"resource_local_to_scene":false,"resource_name":"","device":0,"axis":1,"axis_value":-1.0,"script":null)
 ]
}
ui_down={
"deadzone": 0.5,
"events": [ Object(InputEventKey,"resource_local_to_scene":false,"resource_name":"","device":0,"alt":false,"shift":false,"control":false,"meta":false,"command":false,"pressed":false,"scancode":16777234,"physical_scancode":0,"unicode":0,"echo":false,"script":null)
, Object(InputEventJoypadButton,"resource_local_to_scene":false,"resource_name":"","device":0,"button_index":13,"pressure":0.0,"pressed":false,"script":null)
, Object(InputEventKey,"resource_local_to_scene":false,"resource_name":"","device":0,"alt":false,"shift":false,"control":false,"meta":false,"command":false,"pressed":false,"scancode":83,"physical_scancode":0,"unicode":0,"echo":false,"script":null)
, Object(InputEventJoypadMotion,"resource_local_to_scene":false,"resource_name":"","device":0,"axis":1,"axis_value":1.0,"script":null)
 ]
}
ui_end={
"deadzone": 0.5,
"events": [ Object(InputEventKey,"resource_local_to_scene":false,"resource_name":"","device":0,"alt":false,"shift":false,"control":false,"meta":false,"command":false,"pressed":false,"scancode":16777230,"physical_scancode":0,"unicode":0,"echo":false,"script":null)
 ]
}
interact={
"deadzone": 0.5,
"events": [ Object(InputEventKey,"resource_local_to_scene":false,"resource_name":"","device":0,"alt":false,"shift":false,"control":false,"meta":false,"command":false,"pressed":false,"scancode":32,"physical_scancode":0,"unicode":0,"echo":false,"script":null)
, Object(InputEventJoypadButton,"resource_local_to_scene":false,"resource_name":"","device":0,"button_index":3,"pressure":0.0,"pressed":false,"script":null)
 ]
}
toggle_inventory={
"deadzone": 0.5,
"events": [ Object(InputEventJoypadButton,"resource_local_to_scene":false,"resource_name":"","device":0,"button_index":2,"pressure":0.0,"pressed":false,"script":null)
, Object(InputEventKey,"resource_local_to_scene":false,"resource_name":"","device":0,"alt":false,"shift":false,"control":false,"meta":false,"command":false,"pressed":false,"scancode":16777217,"physical_scancode":0,"unicode":0,"echo":false,"script":null)
 ]
}

[rendering]

2d/options/use_nvidia_rect_flicker_workaround=true
2d/snapping/use_gpu_pixel_snap=true
threads/thread_model=2
environment/default_clear_color=Color( 0.27451, 0.286275, 0.282353, 1 )
environment/default_environment="res://default_env.tres"
quality/2d/use_pixel_snap=true
