[gd_scene load_steps=2 format=2]

[ext_resource path="res://fonts/VerySmall.tres" type="DynamicFont" id=1]

[node name="VerySmallLabel" type="Label"]
margin_right = 40.0
margin_bottom = 14.0
custom_fonts/font = ExtResource( 1 )
text = "VerySmallLabel"
__meta__ = {
"_edit_use_anchors_": false
}
