[gd_resource type="Animation" format=2]

[resource]
resource_name = "dodge"
length = 0.4
loop = true
tracks/0/type = "value"
tracks/0/path = NodePath("Sprite:position:x")
tracks/0/interp = 1
tracks/0/loop_wrap = true
tracks/0/imported = false
tracks/0/enabled = true
tracks/0/keys = {
"times": PoolRealArray( 0, 0.2, 0.4 ),
"transitions": PoolRealArray( 1, 1, 1 ),
"update": 0,
"values": [ 0.0, -20.0, 0.0 ]
}
